<?xml version="1.0" encoding="UTF-8" standalone="no"?>
<!-- Created with matplotlib (http://matplotlib.sourceforge.net/) -->
<!--<svg width="363pt" height="249pt" viewBox="0 0 363 249"  -->
<svg id="svg2" xmlns:rdf="http://www.w3.org/1999/02/22-rdf-syntax-ns#" xmlns="http://www.w3.org/2000/svg" height="467.37pt" width="691.61pt" version="1.1" xmlns:cc="http://creativecommons.org/ns#" xmlns:dc="http://purl.org/dc/elements/1.1/" viewBox="0 0 345.80255 233.683">
 <metadata id="metadata78">
  <rdf:RDF>
   <cc:Work rdf:about="">
    <dc:format>image/svg+xml</dc:format>
    <dc:type rdf:resource="http://purl.org/dc/dcmitype/StillImage"/>
    <dc:title>Plot of Sinc function</dc:title>
   </cc:Work>
  </rdf:RDF>
 </metadata>
 <title id="title4">Plot of Sinc function</title>
 <desc id="desc6">Hand Developed Plot</desc>
 <filter id="colorAdd">
  <feComposite id="feComposite9" k4="0" in2="BackgroundImage" k3="1" k2="1" k1="0" in="SourceGraphic" operator="arithmetic"/>
 </filter>
 <g id="g18" transform="translate(-7,-7.317)" stroke="#000" fill="none">
  <path id="path20" d="m7 197h335"/>
  <path id="path22" d="m175 29v212"/>
 </g>
 <g id="g24" transform="translate(-7,-7.317)" stroke="#000" stroke-width=".5" fill="none">
  <path id="path26" d="m175 228.5h4m-4-62.7h4m-4-31.2h4m-4-31.2h4m-4-31.2h4m-4-31.2h4"/>
  <g id="g28" font-size="10px" stroke-width=".25" style="text-anchor:end" transform="translate(172,3)" stroke="#6030d0" font-family="Arial" fill="#6030d0">
   <text id="text30" y="41">1.0</text>
   <text id="text32" y="72.199997">0.8</text>
   <text id="text34" y="103.4">0.6</text>
   <text id="text36" y="134.60001">0.4</text>
   <text id="text38" y="165.8">0.2</text>
   <text id="text40" y="228.5">-0.2</text>
  </g>
  <path id="path42" d="m175 33.2h2m-2 15.6h2m-2 7.8h2m-2 7.8h2m-2 15.6h2m-2 7.8h2m-2 7.8h2m-2 15.6h2m-2 7.8h2m-2 7.8h2m-2 15.6h2m-2 7.8h2m-2 7.8h2m-2 15.6h2m-2 7.8h2m-2 7.8h2m-2 15.6h2m-2 7.8h2m-2 7.8h2m-2 15.6h2"/>
  <path id="path44" d="m224.5 197v-4m49.5 4v-4m49.5 4v-4m-198.8 4v-4m-49.5 4v-4m-49.5 4v-4"/>
  <g id="g46" font-size="10px" stroke-width=".25" style="text-anchor:middle" transform="translate(0,208)" stroke="#6030d0" font-family="Arial" fill="#6030d0">
   <text id="text48" x="25.700001">-6</text>
   <text id="text50" x="75.199997">-4</text>
   <text id="text52" x="124.7">-2</text>
   <text id="text54" x="224.5">2</text>
   <text id="text56" x="274">4</text>
   <text id="text58" x="323.5">6</text>
  </g>
  <path id="path60" d="m13.5 197v-2m24.7 2v-2m12.3 2v-2m12.5 2v-2m24.5 2v-2m12.5 2v-2m12.5 2v-2m24.5 2v-2m12.5 2v-2m12.5 2v-2m25 2v-2m12.5 2v-2m12.2 2v-2m24.8 2v-2m12.5 2v-2m12.5 2v-2m24.5 2v-2m12.5 2v-2m12.5 2v-2m24.8 2v-2"/>
 </g>
 <g id="g62" stroke-width="1.5" fill="none" transform="matrix(.71 0 0 .78 93 189.68)">
  <path id="path64" d="m-105 0c2.3 2.2 4.6 4.4 7 6.5 3.6 2.9 7.7 5.5 12.2 5 4.8-0.5 8.9-4.1 12.3-7.6l7-7.9c2.2-2.5 4.4-5 7-7 3.7-2.8 8-4.2 12.3-2 5.1 2.6 8.8 8.2 12.2 13l7 9.8c3.4 4.4 8.3 10.1 14 8 6.6-2.4 10.7-11.6 14-17.8l7-13.4c2.7-4.7 7.8-14.5 14-11.8 3.2 1.3 5.3 5.1 7 8.2 2.9 5.3 5 11.2 7 17l8.8 25.7c1.8 5.1 3.8 10.7 7 14.9 1.2 1.6 3.1 3.5 5.2 2.6 2.6-0.9 4.2-4.7 5.2-7.2 3.5-8.3 5.3-17.6 7-26.5l7.1-43.5 12.2-93.3 7-44.4c1.4-7 2.8-14.3 5.3-21 0.7-2 2.4-7.3 5.2-7.3s4.5 5.3 5.3 7.3c2.4 6.7 3.8 14 5.2 21l7 44.4 12.3 93.3 7 43.5c1.7 8.9 3.5 18.2 7 26.5 1 2.5 2.6 6.3 5.2 7.2 2.1 0.9 4-1 5.3-2.6 3.1-4.2 5.1-9.8 6.9-14.9l7-20.6c2.2-6.3 4.3-12.6 7-18.5 2.2-4.8 6.3-13.8 12.3-12.1 5.7 1.7 9.5 10.2 12.3 15.4l7 13.4c3 5.5 7.5 14.2 14 14.9 5.9 0.7 10.6-6.1 14-10.7l7-10c2.1-2.9 4.3-5.8 7-8.1 3-2.7 6.6-4.3 10.4-3.2 4.2 1.1 7.6 4.6 10.6 7.8l7 8c2.1 2.4 4.4 4.7 7 6.6 3.1 2.3 6.7 3.5 10.4 2.7 5.5-1.2 9.9-5.7 14.1-9.6l1.7-1.7" stroke="#4080f0"/>
 </g>
 <g id="g66" font-size="7px" style="text-anchor:middle" transform="translate(-7,-7.317)" font-family="Times" font-style="italic" fill="#6030d0">
  <text id="text68" y="12" x="175">sin(πx)</text>
  <text id="text70" y="19" x="175">πx</text>
  <text id="text72" y="195" x="351" font-size="8px">x</text>
 </g>
 <path id="path74" d="m157 6.883h22" stroke="#6030d0" stroke-width=".5" fill="none"/>
</svg>
