<?xml version="1.0" encoding="UTF-8" standalone="no"?>
<!-- Created with Inkscape (http://www.inkscape.org/) -->
<svg id="svg9079" xmlns:rdf="http://www.w3.org/1999/02/22-rdf-syntax-ns#" xmlns="http://www.w3.org/2000/svg" height="400" width="400" version="1.0" xmlns:cc="http://web.resource.org/cc/" xmlns:dc="http://purl.org/dc/elements/1.1/">
 <metadata id="metadata9084">
  <rdf:RDF>
   <cc:Work rdf:about="">
    <dc:format>image/svg+xml</dc:format>
    <dc:type rdf:resource="http://purl.org/dc/dcmitype/StillImage"/>
   </cc:Work>
  </rdf:RDF>
 </metadata>
 <g id="layer1">
  <rect id="rect9497" opacity="0.99" height="400" width="400" y="0" x="0" fill="#8accff"/>
  <path id="path9485" opacity="0.99" stroke-linejoin="round" d="m300 200a100 100 0 1 1 -200 0 100 100 0 1 1 200 0z" stroke="#a1a1a1" stroke-linecap="round" stroke-dasharray="4,12" stroke-width="2" fill="none"/>
  <path id="path9495" opacity="0.99" stroke-linejoin="round" d="m250 200a50 50 0 1 1 -100 0 50 50 0 1 1 100 0z" stroke="#000" stroke-linecap="round" stroke-dasharray="6,6" stroke-width="2" fill="#fff"/>
  <g id="g9675" fill-rule="evenodd">
   <path id="path9461" d="m199.5 20v360h1v-360h-1z"/>
   <path id="path9681" d="m200 15.384l4 6.92h-8l4-6.92z" stroke="#000" stroke-width=".8pt"/>
  </g>
  <g id="g9667" fill-rule="evenodd">
   <path id="path9467" d="m20 199.5v1h360v-1h-360z"/>
   <path id="path9673" d="m384.62 200l-6.92 4v-8l6.92 4z" stroke="#000" stroke-width=".8pt"/>
  </g>
  <text id="text9471" style="text-anchor:middle;text-align:center" xml:space="preserve" font-size="12px" line-height="125%" y="226.85715" x="374.82257" font-family="Bitstream Vera Sans" fill="#000000"><tspan id="tspan9473" style="text-anchor:middle;text-align:center" font-size="20px" line-height="125%" y="226.85715" x="374.82257" font-family="Century Schoolbook L">R</tspan></text>
  <text id="text9479" style="text-anchor:middle;text-align:center" xml:space="preserve" font-size="20px" y="29.964001" x="217.14285" font-family="Century Schoolbook L" line-height="125%" fill="#000000"><tspan id="tspan9483" x="217.14285" y="29.964001">I</tspan></text>
  <text id="text9487" style="text-anchor:middle;text-align:center" xml:space="preserve" font-size="12px" y="211.78571" x="305.57144" font-family="Bitstream Vera Sans" fill="#000000"><tspan id="tspan9489" x="305.57144" y="211.78571">1</tspan></text>
  <text id="text9491" style="text-anchor:middle;text-align:center" xml:space="preserve" font-size="12px" y="96.785713" x="204.14285" font-family="Bitstream Vera Sans" fill="#000000"><tspan id="tspan9493" x="204.14285" y="96.785713">1</tspan></text>
  <text id="text9499" style="text-anchor:middle;text-align:center" xml:space="preserve" font-size="12px" y="212.89285" x="261.35715" font-family="Bitstream Vera Sans" fill="#000000"><tspan id="tspan9501" x="261.35715" y="212.89285">0.5</tspan></text>
 </g>
</svg>
